{
    "mysql":{
        "hostname":"host.docker.internal",
        "password":"[APP_RW_PASSWORD]",
        "user":"app_rw"
    },
    "databases":{
        "sensorDB":"rai_sensor",
        "foodDB":"qa_rai_food",
        "detectionDB":"qa_rai_detection"
    }
}